ITEM,FROM WAREHOUSE,TO WAREHOUSE
17598,C,D
17648,C,D
17749,C,D
15108,A,B
14111,A,C
13470,A,B
15108,B,D
16453,B,C
16543,B,C
16570,B,D
16453,C,D
16327,B,D
15258,A,D
14111,C,D
13470,B,D
13491,A,C
