product_id,product,description,rrp,price,manufacturer,1mage,keywords,category
1750,Bracelet,Silver 2M Gold Plated 8mm Ball Bracelet 7.13cm,100.34,37.62,,,"bracelet, silver, gold_plated","Jewellery, Accessories "
3210,CHANEL No.5 Eau de Parfum Spray  - 50ml,"Chanel No. 5 is classified as a refined, floral, soft fragrance. A bouquet of abstract flowers with an indefinable femininity.",92,82.95,Chanel,,"perfume, perfume_spray, chanel_no_5",Health & Beauty
6133,Philippa 3 Mary Janes,Hush puppies philippa 3 is a great work shoe as it is on a comfortable mid heel and softly rounded toe shape.,,54.99,Hush Puppies,,"heels, black_leather, kitten_heels, leather",Shoes
